{
    "images": {
	"apple": { "type": "apple", "file": "apple2021.do" },
	"atari": { "type": "atari", "file": "atari2021.atr" },
	"c64": { "type": "commodore", "file": "commodore2021.d64" }
    },
    "tracks": {
	"0": [["apple", 0, [0, 2, 8, 10]], ["atari", 0, [0, 1, 2]]],
	"1": [["apple", 1]],
	"2": [["apple", 2]],
	"3": [["apple", 3]],
	"4": [["apple", 4]],
	"5": [["apple", 5]],
	"6": [["apple", 6]],
	"7": [["apple", 7]],
	"8": [["apple", 8]],
	"16": [["c64", 16]],
	"17": [["c64", 17]],
	"20": [["atari", 20]],
	"21": [["atari", 21]],
	"22": [["atari", 22]],
	"23": [["atari", 23]],
	"24": [["atari", 24]],
	"25": [["atari", 25]],
	"26": [["atari", 26]]
    }
}
